<?xml version="1.0" encoding="utf-8"?>
<!-- Generator: Adobe Illustrator 16.0.0, SVG Export Plug-In . SVG Version: 6.00 Build 0)  -->
<!DOCTYPE svg PUBLIC "-//W3C//DTD SVG 1.1//EN" "http://www.w3.org/Graphics/SVG/1.1/DTD/svg11.dtd">
<svg version="1.1" id="Layer_1" xmlns="http://www.w3.org/2000/svg" xmlns:xlink="http://www.w3.org/1999/xlink" x="0px" y="0px"
	 width="316px" height="241.903px" viewBox="0 0 316 241.903" enable-background="new 0 0 316 241.903" xml:space="preserve">
<g display="none">
	<g display="inline">
		<g>
			<path fill-rule="evenodd" clip-rule="evenodd" fill="#9296B1" d="M33.984,194.1c0.296-1.109,0.508-2.247,0.897-3.32
				c2.556-7.051,9.558-11.332,16.404-11.381c7.271-0.052,15.957,5.707,16.96,14.807c0.723,6.569-1.771,11.779-7.096,15.533
				c-5.329,3.756-11.126,4.037-17.117,1.662c-0.247-0.099-0.49-0.208-0.737-0.309c-0.024-0.011-0.057,0.004-0.186,0.016
				c0,6.107,0,12.227,0,18.464c-3.108,0-6.116,0-9.126,0C33.984,217.747,33.984,205.924,33.984,194.1z M51.102,188.347
				c-4.066-0.261-8.071,3.512-8.048,8.006c0.023,4.309,4.12,7.816,8.407,7.665c4.26-0.15,7.837-3.698,7.802-8.005
				C59.23,191.718,55.619,188.325,51.102,188.347z"/>
			<path fill-rule="evenodd" clip-rule="evenodd" fill="#9296B1" d="M282.016,214.42c-0.08,0.37-0.172,0.737-0.236,1.11
				c-1.34,7.552-8.467,13.509-16.145,13.743c-4.773,0.146-8.92-1.27-12.41-4.414c-3.393-3.057-5.488-6.885-5.512-11.557
				c-0.053-11.105-0.018-22.21-0.016-33.314c0-0.262,0.031-0.523,0.051-0.825c2.979,0,5.906,0,8.961,0c0,6.16,0,12.309,0,18.574
				c0.443-0.171,0.744-0.273,1.035-0.397c7.75-3.342,16.43-0.968,21.328,5.873c1.508,2.108,2.383,4.492,2.758,7.06
				c0.037,0.257,0.123,0.507,0.186,0.761C282.016,212.162,282.016,213.291,282.016,214.42z M264.807,204.824
				c-4.486,0.041-8.064,3.525-8.035,7.828c0.029,4.408,3.654,7.875,8.205,7.845c4.371-0.03,7.91-3.613,7.879-7.979
				C272.822,208.236,269.213,204.785,264.807,204.824z"/>
			<path fill-rule="evenodd" clip-rule="evenodd" fill="#9296B1" d="M170.941,197.729c1.141-0.417,2.094-0.809,3.074-1.121
				c9.297-2.958,19.445,2.684,21.787,12.105c2.572,10.35-5.174,19.011-13.668,20.327c-5.561,0.862-10.549-0.426-14.711-4.214
				c-3.297-2.999-5.416-6.754-5.447-11.327c-0.074-11.229-0.029-22.46-0.027-33.69c0-0.2,0.045-0.402,0.074-0.645
				c2.965,0,5.896,0,8.918,0C170.941,185.304,170.941,191.437,170.941,197.729z M179.199,220.497
				c4.359-0.024,7.984-3.646,7.949-7.938c-0.037-4.285-3.635-7.699-8.033-7.748c-5.113-0.057-8.105,4.35-8.092,7.798
				C171.041,217.001,174.678,220.52,179.199,220.497z"/>
			<path fill-rule="evenodd" clip-rule="evenodd" fill="#9296B1" d="M118.849,229.547c0-0.396,0-0.746,0-1.096
				c0-10.66,0.059-21.32-0.029-31.981c-0.034-4.335,1.433-7.994,4.212-11.213c6.153-7.13,17.192-7.853,24.386-1.533
				c5.207,4.575,7.019,10.404,5.119,16.985c-1.928,6.683-6.734,10.605-13.555,11.911c-3.531,0.676-6.977,0.144-10.272-1.305
				c-0.211-0.093-0.426-0.176-0.791-0.325c0,3.182,0,6.252,0,9.321c0,3.054,0,6.107,0,9.235
				C124.9,229.547,121.948,229.547,118.849,229.547z M136.068,203.987c4.425,0.007,8.043-3.497,8.059-7.802
				c0.014-4.451-3.512-7.845-8.155-7.847c-4.457-0.003-8.018,3.501-8.036,7.909C127.918,200.476,131.6,203.98,136.068,203.987z"/>
			<path fill-rule="evenodd" clip-rule="evenodd" fill="#9296B1" d="M91.555,221.209c5.087,0,10.07,0,15.148,0
				c0,2.664,0,5.282,0,7.955c-10.145,0-20.311,0-30.641,0c0.505-0.735,0.949-1.385,1.396-2.032
				c4.659-6.74,9.277-13.51,13.999-20.207c2.085-2.958,4.415-5.741,6.564-8.655c1.494-2.022,1.67-4.275,0.719-6.584
				c-1.441-3.497-5.866-5.326-9.396-3.921c-3.729,1.482-5.489,5.489-4.061,9.233c0.082,0.218,0.159,0.436,0.27,0.739
				c-0.289,0.025-0.508,0.062-0.728,0.062c-2.377,0.003-4.752-0.021-7.128,0.017c-0.69,0.011-0.99-0.19-1.113-0.9
				c-1.436-8.335,4.718-16.477,13.138-17.47c5.218-0.614,9.782,0.785,13.422,4.505c4.904,5.015,5.946,12.281,1.419,18.38
				c-4.475,6.026-8.582,12.326-12.85,18.507C91.667,220.906,91.647,220.994,91.555,221.209z"/>
			<path fill-rule="evenodd" clip-rule="evenodd" fill="#9296B1" d="M213.521,197.8c-2.811,0-5.482-0.007-8.152,0.007
				c-0.604,0.003-0.641-0.413-0.707-0.826c-0.836-5.34,0.719-9.888,4.682-13.531c4.367-4.015,9.568-5.128,15.152-3.445
				c5.648,1.702,9.303,5.617,10.619,11.431c0.871,3.86-0.137,7.348-2.439,10.593c-4.35,6.127-8.555,12.353-12.818,18.539
				c-0.113,0.163-0.199,0.343-0.377,0.652c5.135,0,10.133,0,15.193,0c0,2.699,0,5.293,0,7.944c-10.193,0-20.361,0-30.672,0
				c1.211-1.767,2.354-3.451,3.512-5.124c4.092-5.906,8.148-11.836,12.301-17.699c1.834-2.592,3.887-5.026,5.791-7.569
				c2.027-2.704,2.193-5.618,0.545-8.117c-1.738-2.632-4.99-3.907-8.117-3.135c-3.047,0.752-6.684,4.572-4.891,9.321
				C213.246,197.111,213.355,197.382,213.521,197.8z"/>
		</g>
		<g>
			<path fill-rule="evenodd" clip-rule="evenodd" fill="#9296B1" d="M110.442,143.393c-2.068-2.004-4.243-3.91-6.188-6.026
				c-13.557-14.747-20.631-32.129-20.768-52.192c-0.118-17.301-0.039-34.604-0.025-51.906c0.008-12.035,8.847-20.868,20.876-20.876
				c17.36-0.011,34.723-0.144,52.08,0.026c39.634,0.385,71.812,30.076,75.742,68.981c0.275,2.722,0.387,5.471,0.393,8.207
				c0.033,17.016,0.039,34.036,0.004,51.051c-0.021,10.205-6.268,18.176-15.939,20.39c-1.434,0.327-2.932,0.504-4.4,0.508
				c-17.475,0.033-34.949,0.044-52.422,0.013c-7.568-0.015-14.969-1.218-22.221-3.391c-1.064-0.319-1.413-0.821-1.409-1.929
				c0.038-9.022,0.014-18.044,0.014-27.067c0-0.266,0.055-0.532,0.096-0.899c2.26,0.923,4.376,1.886,6.558,2.663
				c26.735,9.516,55.723-6.9,61.354-34.72c5.367-26.523-12.979-52.137-39.807-55.531c-2.146-0.272-4.326-0.381-6.491-0.389
				c-9.993-0.041-19.986-0.023-29.979-0.021c-8.726,0.001-15.409,5.641-16.832,14.242c-0.174,1.062-0.184,2.158-0.184,3.24
				c-0.008,27.581-0.003,55.163-0.002,82.745c0,0.886,0,1.773,0,2.661C110.74,143.245,110.591,143.319,110.442,143.393z"/>
			<path fill-rule="evenodd" clip-rule="evenodd" fill="#9296B1" d="M135.747,86.9c0.014-12.317,9.91-22.183,22.231-22.163
				c12.608,0.021,22.307,9.972,22.276,22.855c-0.029,11.848-10.207,21.648-22.465,21.636
				C145.501,109.214,135.732,99.317,135.747,86.9z"/>
		</g>
	</g>
</g>
<g>
	<g>
		<path fill="#9296B1" d="M77.358,170.2c-5.607,0-10.215,0-15.1,0c-1.23-5.503-0.467-10.878-0.596-16.192
			c-0.137-5.584-0.029-11.176-0.029-16.764c0-5.381,0-10.761,0-16.742c-5.826,0-11.314,0-16.996,0
			c-0.703-2.809-1.193-5.131-1.875-7.393c-1.555-5.172-4.506-7.432-9.688-7.565c-5.488-0.145-8.969,2.061-10.537,7.24
			c-1.701,5.627-1.65,11.488-0.225,17.097c1.861,7.329,9.309,10.213,15.9,6.583c1.287-0.71,2.463-1.63,3.654-2.429
			c2.957,3.153,5.85,6.238,9.09,9.697c-3.898,5.39-10.398,7.371-17.295,7.642c-10.912,0.43-23.111-4.497-26.289-20.755
			c-1.438-7.342-1.291-14.801,1.023-22.057c3.066-9.627,11.559-16.067,21.648-16.454c12.713-0.488,18.59,2.681,26.398,14.358
			c0.756,0.075,1.664,0.236,2.572,0.232c0.699-0.001,1.4-0.211,2.562-0.406c0-11.427,0-22.731,0-34.393
			c1.703-0.078,2.928-0.183,4.152-0.182c8.754,0.006,17.514,0.255,26.262-0.001c12.477-0.363,22.836,6.31,26.051,19.03
			c0.082,0.325,0.396,0.592,0.963,1.395c4.629,0,9.633-0.12,14.625,0.049c2.762,0.094,5.555,0.463,8.248,1.078
			c8.041,1.84,13.061,6.755,14.523,15.011c0.322,1.819,0.49,3.663,0.725,5.462c3.99,1.058,31.641,1.353,39.199,0.395
			c1.686-7.939,5.123-15.081,12.643-19.238c5.934-3.278,12.488-3.755,18.984-2.165c13.672,3.345,20.715,16.315,17.871,32.861
			c-5.76,1.08-11.689,0.366-17.574,0.492c-5.734,0.124-11.475,0.026-17.189,0.026c-0.135,6.503,2.012,10.011,7.004,11.742
			c1.566,0.543,3.252,1.004,4.891,1.035c6.518,0.124,13.037,0.063,19.557,0.069c1.664,0.002,3.326,0.001,5.225,0.001
			c4.01-5.93,7.949-11.756,12.055-17.826c-6.188-9.154-12.281-18.168-18.721-27.698c5.855-1.804,10.998-0.643,16.777-1.035
			c3.227,5.238,6.512,10.572,10.154,16.486c7.607-12.623,15.008-24.906,22.35-37.085c6.35,0,12.25,0,19.203,0
			c-11.309,16.701-22.201,32.79-33.387,49.311c6.377,9.489,12.758,18.982,19.588,29.141c-6.229,0-11.535,0-17.391,0
			c-3.295-5.203-6.752-10.66-10.463-16.519c-3.678,5.994-7.166,11.68-10.895,17.755c-6.604,0-13.287,0.102-19.967-0.028
			c-6.865-0.134-13.791-0.004-20.578-0.863c-11.199-1.417-17.186-8.684-19.564-19.327c-0.158-0.715-0.381-1.414-0.691-2.549
			c-3.221,0-6.439,0-10.406,0c-0.051,13.686-0.1,27.333-0.152,41.346c-5.324,0-9.848,0-14.896,0
			c-0.9-13.947,0.107-27.647-0.605-41.535c-4.488,0-8.51,0-13.16,0c0,7.157,0,14.135,0,21.207c-4.918,1.52-9.32,0.715-14.012,0.673
			c-0.396-1.238-0.77-2.408-1.211-3.789c-0.645,0.45-1.25,0.841-1.82,1.278c-8.461,6.458-23.844,3.634-28.531-4.198
			c-5.924-9.898-3.178-24.604,11.625-26.895c6.008-0.928,12.17-0.84,18.311-1.218c1.283-6.646-1.277-10.485-7.734-10.897
			c-4.08-0.262-8.191-0.064-12.289-0.072c-1.279-0.002-2.559,0-3.896,0c-2.822,6.714-7.139,11.785-13.754,14.167
			c-3.779,1.361-7.904,2.021-11.928,2.385c-4.422,0.397-8.906,0.09-14.15,0.09C77.245,137.621,77.649,153.701,77.358,170.2z
			 M77.917,85.641c0,7.348,0,14.063,0,20.826c1.182,0.116,1.912,0.246,2.641,0.25c3.709,0.024,7.418,0.08,11.127,0.006
			c6.621-0.135,10.938-3.971,11.23-9.872c0.305-6.127-4.018-10.833-10.617-11.165C87.685,85.453,83.048,85.641,77.917,85.641z
			 M141.769,126.71c-4.111,0-7.805-0.118-11.484,0.024c-6.977,0.273-8.895,3.601-6.066,10.298c6.34,3.534,11.855,2.938,16.73-1.952
			c0.326-1.631,0.74-3.441,1.023-5.273C142.081,129.101,141.892,128.35,141.769,126.71z M231.421,115.528
			c-0.166-7.44-3.592-11.044-10.021-11.05c-6.682-0.006-10.164,3.64-10.279,11.05C217.737,115.528,224.354,115.528,231.421,115.528z
			"/>
	</g>
</g>
<g display="none">
	<g display="inline">
		<path fill-rule="evenodd" clip-rule="evenodd" fill="#9296B1" d="M87.187,130.32c0.713,0.225,1.443,0.404,2.135,0.68
			c5.118,2.047,10.5,2.719,15.933,3.283c3.18,0.33,6.216-0.425,9.319-0.607c3.928-0.23,7.878-0.067,11.818-0.076
			c0.137,0,0.272-0.033,0.409-0.052c0.022-0.147,0.044-0.296,0.067-0.443c-3.107-0.483-6.2-1.123-9.326-1.405
			c-2.82-0.256-5.703,0.103-8.514-0.208c-5.042-0.557-9.094-3.286-12.785-6.565c-5.811-5.165-10.819-10.992-14.1-18.11
			c-3.008-6.528-4.664-13.46-5.665-20.557c-0.061-0.427-0.038-0.866-0.032-1.3c0.004-0.177,0.068-0.353,0.189-0.93
			c0.398,0.802,0.617,1.305,0.889,1.777c1.572,2.75,2.967,5.627,4.786,8.203c2.139,3.029,5.309,4.263,9.032,4.731
			c3.548,0.447,7.039,1.511,10.484,2.54c2.247,0.671,4.367,1.766,6.707,2.502c-0.334-0.258-0.678-0.504-1.002-0.773
			c-4.516-3.748-9.201-7.313-13.487-11.307c-3.44-3.207-6.419-6.884-8.298-11.351c-2.092-4.979-2.732-10.157-2.25-15.434
			c0.4-4.399,1.252-8.761,1.975-13.127c0.197-1.192,0.649-2.344,1.287-3.575c2.478,20.113,12.916,34.394,31.057,43.15
			c-0.355-0.378-0.711-0.757-1.066-1.133c-5.203-5.506-10.198-11.18-13.998-17.782c-4.572-7.943-6.253-16.491-5.277-25.601
			c0.762-7.113,3.045-13.702,6.603-19.876c0.321-0.56,0.733-1.066,1.463-1.517c0.054,0.585,0.12,1.169,0.16,1.755
			c0.348,5.084,0.568,10.181,1.07,15.249c0.459,4.641,2.206,8.932,4.888,12.696c2.869,4.029,6.109,7.795,9.2,11.667
			c0.263,0.328,0.616,0.584,1.194,1.122c-1.621-3.392-3.157-6.418-4.529-9.517c-2.109-4.759-4.1-9.558-4.981-14.749
			c-1.148-6.757,0.024-13.208,2.878-19.272c1.791-3.807,4.301-7.278,6.543-10.864c0.438-0.698,1.135-1.234,1.924-1.745
			c-3.163,7.456-3.414,15.192-2.542,22.983c0.862,7.71,2.277,15.301,7.183,21.646c0.168-0.04,0.338-0.079,0.506-0.118
			c-0.121-0.814-0.248-1.628-0.363-2.443c-1.393-9.876-1.441-19.672,1.741-29.277c2.57-7.758,7.179-13.797,14.696-17.355
			c1.216-0.576,2.484-1.062,3.77-1.458c0.737-0.228,1.555-0.19,2.769-0.319c-0.486,0.51-0.61,0.707-0.79,0.817
			c-6.899,4.277-10.703,10.756-12.487,18.403c-0.987,4.233-1.438,8.639-1.679,12.992c-0.428,7.732,0.253,15.404,2.345,22.905
			c2.263,8.116,6.174,15.341,11.702,21.695c3.138,3.608,6.346,7.165,10.639,9.444c7.139,3.79,14.408,3.811,21.646,0.314
			c1.213-0.586,2.235-1.665,3.189-2.666c1.142-1.2,0.691-2.394-0.939-2.708c-0.557-0.106-1.15-0.013-1.723-0.065
			c-0.353-0.031-0.695-0.165-1.043-0.252c0.137-0.38,0.173-0.854,0.426-1.123c1.156-1.227,2.323-2.455,3.58-3.576
			c3.089-2.756,6.206-5.479,9.357-8.164c2.152-1.834,3.482-4.218,4.643-6.711c0.143-0.309-0.254-0.896-0.456-1.328
			c-0.21-0.45-0.54-0.849-0.716-1.309c-0.092-0.242-0.012-0.58,0.065-0.854c1.882-6.747-5.052-11.457-9.922-11.399
			c-4.374,0.052-8.745,0.421-13.118,0.654c-0.19,0.01-0.378,0.072-0.568,0.097c-2.381,0.305-2.712-0.102-1.999-2.341
			c1.28-4.024,3.297-7.574,6.437-10.465c1.095-1.008,2.056-2.165,3.023-3.299c0.33-0.388,0.616-0.891,0.72-1.384
			c1.019-4.851,4.308-7.736,8.655-9.317c11.008-4.006,20.924-1.915,29.633,5.906c4.66,4.186,7.83,9.487,10.915,14.822
			c5.53,9.562,8.854,19.924,10.039,30.856c1.257,11.58,0.608,23.073-2.88,34.325c-2.399,7.739-5.598,15.089-10.011,21.872
			c-3.928,6.037-8.562,11.485-13.958,16.305c-5.603,5.006-11.66,9.332-18.281,12.85c-7.378,3.919-15.226,6.566-23.462,7.928
			c-17.719,2.929-34.815,1.064-51.188-6.679c-10.031-4.744-18.867-11.082-26.203-19.356c-3.596-4.056-6.602-8.635-9.859-12.989
			c-0.215-0.286-0.294-0.675-0.437-1.016C87.022,130.537,87.104,130.429,87.187,130.32z"/>
		<path fill-rule="evenodd" clip-rule="evenodd" fill="#9296B1" d="M113.768,223.986c2.439,3.829,4.933,7.743,7.573,11.888
			c-0.707,0.1-1.109,0.203-1.512,0.205c-2.843,0.014-5.686-0.031-8.527,0.025c-1.078,0.021-1.647-0.432-2.121-1.354
			c-1.359-2.658-2.831-5.258-4.198-7.912c-0.433-0.84-0.987-1.209-1.929-1.175c-1.395,0.05-2.796,0.063-4.189-0.003
			c-1.217-0.058-1.608,0.469-1.582,1.629c0.054,2.312-0.036,4.627,0.034,6.938c0.04,1.33-0.358,1.938-1.796,1.883
			c-2.357-0.088-4.721-0.055-7.081-0.012c-1.088,0.02-1.577-0.363-1.575-1.502c0.019-11.756,0.019-23.511,0-35.267
			c-0.002-1.143,0.496-1.502,1.58-1.497c6.118,0.03,12.238-0.061,18.355,0.046c6.666,0.116,11.957,4.193,13.171,10.062
			c0.938,4.537,0.356,8.854-2.55,12.597C116.438,221.803,115.075,222.771,113.768,223.986z M101.441,205.893
			c-0.003,0.041-0.007,0.082-0.011,0.123c-0.961,0-1.924,0.013-2.886-0.004c-0.833-0.015-1.245,0.35-1.242,1.204
			c0.01,3.03,0.009,6.061,0.001,9.092c-0.002,0.854,0.417,1.229,1.248,1.196c2.543-0.098,5.102-0.043,7.623-0.328
			c2.86-0.322,4.384-2.395,4.396-5.5c0.011-2.93-1.586-4.935-4.401-5.355C104.606,206.086,103.018,206.029,101.441,205.893z"/>
		<path fill-rule="evenodd" clip-rule="evenodd" fill="#9296B1" d="M128.231,216.948c0-5.735-0.005-11.471,0.003-17.206
			c0.002-1.785,0.109-1.895,1.88-1.896c8.867-0.005,17.735-0.005,26.603,0c1.812,0.001,1.903,0.097,1.916,1.853
			c0.011,1.494-0.062,2.991,0.021,4.481c0.078,1.371-0.426,1.865-1.821,1.851c-5.397-0.059-10.795-0.026-16.192-0.021
			c-1.921,0.002-1.972,0.057-1.983,1.918c-0.006,1.061,0.069,2.127-0.018,3.18c-0.117,1.427,0.51,1.815,1.857,1.799
			c4.771-0.06,9.542-0.025,14.313-0.021c1.991,0.002,2.056,0.068,2.064,2.002c0.007,1.398-0.048,2.798,0.016,4.192
			c0.057,1.24-0.422,1.71-1.683,1.697c-4.867-0.047-9.735-0.022-14.603-0.017c-1.887,0.003-1.938,0.061-1.948,1.953
			c-0.006,1.157,0.061,2.317-0.017,3.469c-0.089,1.317,0.417,1.776,1.747,1.765c5.589-0.055,11.18-0.025,16.771-0.021
			c1.997,0.002,2.047,0.053,2.054,2.006c0.005,1.59-0.023,3.182,0.005,4.771c0.018,0.975-0.397,1.391-1.38,1.389
			c-9.397-0.014-18.796-0.02-28.193,0.006c-1.354,0.004-1.421-0.795-1.419-1.799C128.237,228.515,128.231,222.731,128.231,216.948z"
			/>
		<path fill-rule="evenodd" clip-rule="evenodd" fill="#9296B1" d="M202.271,235.983c-0.875,0.049-1.384,0.1-1.895,0.1
			c-2.745,0.008-5.494-0.076-8.236,0.035c-1.496,0.062-2.377-0.498-3.172-1.725c-1.91-2.951-3.957-5.812-5.954-8.706
			c-0.213-0.307-0.461-0.588-0.809-1.026c-0.661,0.899-1.277,1.679-1.832,2.5c-1.753,2.594-3.44,5.234-5.257,7.783
			c-0.384,0.539-1.193,1.066-1.825,1.088c-3.127,0.111-6.261,0.057-9.392,0.043c-0.316,0-0.633-0.109-1.278-0.229
			c1.238-1.812,2.346-3.465,3.484-5.094c3.061-4.385,6.116-8.77,9.216-13.124c0.596-0.838,0.405-1.456-0.108-2.207
			c-3.562-5.208-7.098-10.434-10.638-15.656c-0.318-0.472-0.604-0.965-1.057-1.693c0.652-0.098,1.086-0.217,1.521-0.219
			c2.938-0.017,5.877,0.021,8.815-0.024c0.99-0.015,1.601,0.384,2.122,1.188c1.704,2.627,3.457,5.223,5.198,7.825
			c0.283,0.424,0.604,0.823,1.033,1.404c0.436-0.574,0.766-0.967,1.05-1.391c1.743-2.601,3.422-5.248,5.253-7.785
			c0.432-0.596,1.355-1.139,2.077-1.169c3.028-0.129,6.067-0.06,9.103-0.05c0.369,0.002,0.738,0.087,1.426,0.173
			c-0.525,0.843-0.914,1.524-1.358,2.169c-3.336,4.836-6.661,9.68-10.044,14.483c-0.723,1.026-0.714,1.823,0.001,2.852
			c3.847,5.538,7.636,11.115,11.44,16.682C201.476,234.679,201.761,235.171,202.271,235.983z"/>
		<path fill-rule="evenodd" clip-rule="evenodd" fill="#9296B1" d="M67.597,197.565c5.505-0.125,10.262,1.833,14.484,5.245
			c1.346,1.088,1.338,1.357,0.245,2.66c-1.298,1.549-2.587,3.107-3.843,4.691c-0.676,0.854-1.156,0.999-2.026,0.092
			c-1.888-1.971-4.079-3.521-6.881-3.973c-4.513-0.727-8.714,1.421-10.76,5.522c-2.735,5.483-0.4,12.181,5.154,14.646
			c2.969,1.32,5.958,0.975,8.812-0.337c1.335-0.611,2.536-1.546,3.727-2.431c0.599-0.444,1.037-0.635,1.604-0.03
			c1.514,1.615,3.02,3.239,4.573,4.817c0.665,0.674,0.44,1.135-0.142,1.674c-3.683,3.396-7.976,5.625-12.957,6.158
			c-5.787,0.619-11.102-0.752-15.628-4.602c-4.104-3.492-6.285-7.989-6.694-13.306c-0.428-5.555,1.166-10.543,5.002-14.604
			c3.572-3.781,8.098-5.805,13.307-6.218C66.243,197.521,66.921,197.565,67.597,197.565z"/>
		<path fill-rule="evenodd" clip-rule="evenodd" fill="#9296B1" d="M219.217,227.923c0.657,0,1.315,0,1.974,0
			c3.902,0.002,7.806,0.047,11.707-0.021c1.405-0.025,1.887,0.494,1.816,1.857c-0.083,1.586-0.054,3.18-0.01,4.768
			c0.03,1.084-0.355,1.574-1.502,1.572c-8.769-0.025-17.537-0.023-26.307-0.004c-1.039,0.002-1.539-0.396-1.463-1.449
			c0.007-0.096,0-0.193-0.002-0.289c-0.104-4.98-0.07-4.949,3.4-8.52c4.026-4.141,7.996-8.337,11.963-12.536
			c0.522-0.552,0.92-1.236,1.302-1.901c0.785-1.366,1.167-2.846,0.185-4.221c-0.976-1.364-2.569-1.433-4.067-1.323
			c-3.03,0.223-5.63,1.561-8.015,3.368c-0.645,0.488-1.292,0.973-2.159,1.624c-1.212-2.438-2.39-4.733-3.469-7.074
			c-0.123-0.268,0.188-0.96,0.493-1.165c6.291-4.231,13.076-6.403,20.649-4.344c3.646,0.992,6.588,3.067,7.597,6.997
			c0.807,3.14,0.039,6.104-1.839,8.626c-2.005,2.69-4.254,5.212-6.521,7.695c-1.875,2.054-3.933,3.942-5.908,5.904
			C219.101,227.632,219.158,227.778,219.217,227.923z"/>
		<path fill-rule="evenodd" clip-rule="evenodd" fill="#9296B1" d="M247.556,220.064c2.272,0,4.135,0.058,5.985-0.06
			c0.284-0.018,0.714-0.825,0.739-1.286c0.091-1.681,0.076-3.371,0.027-5.055c-0.033-1.132,0.329-1.696,1.562-1.662
			c2.166,0.059,4.335,0.051,6.502,0.003c1.137-0.025,1.547,0.465,1.52,1.556c-0.041,1.637,0.033,3.276-0.021,4.912
			c-0.037,1.134,0.319,1.648,1.554,1.663c3.377,0.041,3.376,0.086,3.376,3.416c0,1.011-0.022,2.022,0.001,3.035
			c0.021,0.957-0.38,1.361-1.369,1.412c-3.55,0.18-3.548,0.207-3.549,3.812c-0.001,1.012-0.013,2.023-0.009,3.035
			c0.003,0.828-0.38,1.238-1.229,1.234c-2.36-0.01-4.72-0.014-7.079,0.002c-0.955,0.006-1.254-0.508-1.247-1.369
			c0.013-1.686-0.054-3.373,0.016-5.057c0.051-1.244-0.403-1.705-1.669-1.691c-4.574,0.053-9.15,0.025-13.726,0.018
			c-1.868-0.002-1.736-0.121-2.005-1.952c-0.637-4.334,1.445-7.845,3.146-11.488c2.362-5.061,4.771-10.098,7.107-15.17
			c0.511-1.111,1.189-1.603,2.438-1.551c2.068,0.083,4.142,0.016,6.213,0.028c0.463,0.002,0.926,0.072,1.764,0.144
			C254.243,205.376,250.991,212.52,247.556,220.064z"/>
	</g>
</g>
</svg>
